[gd_scene load_steps=2 format=2]

[ext_resource path="res://Websocket.gd" type="Script" id=1]

[node name="Websocket" type="Node"]
script = ExtResource( 1 )

[node name="ButtonSendText" type="Button" parent="."]
margin_right = 12.0
margin_bottom = 20.0
text = "Send Text"
__meta__ = {
"_edit_use_anchors_": false
}

[node name="ButtonSendBinary" type="Button" parent="."]
margin_left = 106.0
margin_right = 189.0
margin_bottom = 20.0
text = "Send Bytes"
__meta__ = {
"_edit_use_anchors_": false
}
[connection signal="pressed" from="ButtonSendText" to="." method="_on_ButtonSendText_pressed"]
[connection signal="pressed" from="ButtonSendBinary" to="." method="_on_ButtonSendBinary_pressed"]
